

Hi Rob! This is great stuff to learn!



This is file 1
If it were a real file
It would have more contents
This is new material
<<<<<<< HEAD
modified for push execise ======
=======
<<<<<<< HEAD
Blah Blah

=======
hello
>>>>>>> 5802446aef805ac2fe0de55bcc74f527a5dff6d9
>>>>>>> 85787c5475a5ce6e1b0073daf7a497074803bc0f
